Hys Law Analysis Dataset (ADHY) — radhy • random.cdisc.data
…
    data.frame

    Details

    One record per subject per parameter per analysis visit per analysis date.

Keys: STUDYID, USUBJID, PARAMCD, AVISITN, ADTM, SRCSEQ.

    Examples

library(random.cdisc.data)
ADSL <- radsl(N = 10, seed = 1, study_duration = 2)
radhy(ADSL, seed = 2)
#> # A tibble: 500 x 54
#>    STUDYID USUBJID SUBJID SITEID   AGE SEX   RACE  COUNTRY DTHFL INVID INVNAM
#>    <chr>   <chr>   <chr>  <chr>  <int> <fct> <fct> <fct>   <fct> <chr> <chr> 
#>  1 AB12345 AB1234… id-9   BRA-1     35 F     BLAC… BRA     N     INV … Dr. B…
#>  2 AB12345 AB1234… id-9   BRA-1     35 F     BLAC… BRA     N     INV … Dr. B…
#>  3 AB12345 AB1234… id-9   BRA-1     35 F     BLAC… BRA     N     INV … Dr. B…
#>  4 AB12345 AB1234… id-9   BRA-1     35 F     BLAC… BRA     N     INV … Dr. B…
#>  5 AB12345 AB1234… id-9   BRA-1     35 F     BLAC… BRA     N     INV … Dr. B…
#>  6 AB12345 AB1234… id-9   BRA-1     35 F     BLAC… BRA     N     INV … Dr. B…
#>  7 AB12345 AB1234… id-9   BRA-1     35 F     BLAC… BRA     N     INV … Dr. B…
#>  8 AB12345 AB1234… id-9   BRA-1     35 F     BLAC… BRA     N     INV … Dr. B…
#>  9 AB12345 AB1234… id-9   BRA-1     35 F     BLAC… BRA     N     INV … Dr. B…
#> 10 AB12345 AB1234… id-9   BRA-1     35 F     BLAC… BRA     N     INV … Dr. B…
#> # … with 490 more rows, and 43 more variables: ARM <fct>, ARMCD <fct>,
#> #   ACTARM <fct>, ACTARMCD <fct>, REGION1 <fct>, STRATA1 <fct>, STRATA2 <fct>,
#> #   BMRKR1 <dbl>, BMRKR2 <fct>, ITTFL <fct>, SAFFL <fct>, BMEASIFL <fct>,
#> #   BEP01FL <fct>, RANDDT <date>, TRTSDTM <dttm>, TRTEDTM <dttm>, EOSSTT <fct>,
#> #   EOSDT <date>, EOSDY <int>, DCSREAS <fct>, DTHDT <date>, DTHCAUS <fct>,
#> #   DTHCAT <fct>, LDDTHELD <int>, LDDTHGR1 <fct>, LSTALVDT <date>,
#> #   study_duration_secs <dbl>, PARAM <fct>, PARAMCD <fct>, AVAL <dbl>,
#> #   AVALC <fct>, BASE <dbl>, BASEC <fct>, ABLFL <fct>, ADTM <dttm>, ADY <int>,
#> #   AVISIT <fct>, AVISITN <int>, APERIOD <int>, APERIODC <fct>, ONTRTFL <fct>,
…
