Laboratory Data Analysis Dataset (ADLB) — radlb • random.cdisc.data
…
    data.frame

    Details

    One record per subject per parameter per analysis visit per analysis date.

Keys: STUDYID, USUBJID, PARAMCD, BASETYPE, AVISITN, ATPTN, DTYPE, ADTM, LBSEQ, ASPID.

    Examples

library(random.cdisc.data)
ADSL <- radsl(N = 10, seed = 1, study_duration = 2)
radlb(ADSL, visit_format = "WEEK", n_assessments = 7L, seed = 2)
#> # A tibble: 270 x 59
#>    STUDYID USUBJID SUBJID SITEID   AGE SEX   RACE  COUNTRY INVID ARM   ARMCD
#>    <chr>   <chr>   <chr>  <chr>  <int> <fct> <fct> <fct>   <chr> <fct> <fct>
#>  1 AB12345 AB1234… id-9   BRA-1     35 F     BLAC… BRA     BRA-1 C: C… ARM C
#>  2 AB12345 AB1234… id-9   BRA-1     35 F     BLAC… BRA     BRA-1 C: C… ARM C
#>  3 AB12345 AB1234… id-9   BRA-1     35 F     BLAC… BRA     BRA-1 C: C… ARM C
#>  4 AB12345 AB1234… id-9   BRA-1     35 F     BLAC… BRA     BRA-1 C: C… ARM C
#>  5 AB12345 AB1234… id-9   BRA-1     35 F     BLAC… BRA     BRA-1 C: C… ARM C
#>  6 AB12345 AB1234… id-9   BRA-1     35 F     BLAC… BRA     BRA-1 C: C… ARM C
#>  7 AB12345 AB1234… id-9   BRA-1     35 F     BLAC… BRA     BRA-1 C: C… ARM C
#>  8 AB12345 AB1234… id-9   BRA-1     35 F     BLAC… BRA     BRA-1 C: C… ARM C
#>  9 AB12345 AB1234… id-9   BRA-1     35 F     BLAC… BRA     BRA-1 C: C… ARM C
#> 10 AB12345 AB1234… id-9   BRA-1     35 F     BLAC… BRA     BRA-1 C: C… ARM C
#> # … with 260 more rows, and 48 more variables: ACTARM <fct>, ACTARMCD <fct>,
#> #   STRATA1 <fct>, STRATA2 <fct>, BMRKR1 <dbl>, BMRKR2 <fct>, ITTFL <fct>,
#> #   SAFFL <fct>, BMEASIFL <fct>, BEP01FL <fct>, RANDDT <date>, TRTSDTM <dttm>,
#> #   TRTEDTM <dttm>, EOSSTT <fct>, EOSDT <date>, EOSDY <int>, DCSREAS <fct>,
#> #   DTHDT <date>, LSTALVDT <date>, study_duration_secs <dbl>, ASEQ <int>,
#> #   LBSEQ <int>, LBTESTCD <fct>, LBTEST <fct>, LBCAT <fct>, LBSTRESC <chr>,
#> #   ASPID <int>, PARAM <fct>, PARAMCD <fct>, AVAL <dbl>, AVALU <fct>,
#> #   BASE2 <dbl>, BASE <dbl>, BASETYPE <fct>, ABLFL2 <fct>, ABLFL <fct>,
#> #   CHG2 <dbl>, PCHG2 <dbl>, CHG <dbl>, PCHG <dbl>, DTYPE <lgl>, ANRIND <fct>,
#> #   ADTM <dttm>, ADY <int>, ATPTN <int>, AVISIT <fct>, AVISITN <int>,
#> #   LOQFL <fct>
radlb(ADSL, visit_format = "CYCLE", n_assessments = 2L, seed = 2)
#> # A tibble: 330 x 59
#>    STUDYID USUBJID SUBJID SITEID   AGE SEX   RACE  COUNTRY INVID ARM   ARMCD
#>    <chr>   <chr>   <chr>  <chr>  <int> <fct> <fct> <fct>   <chr> <fct> <fct>
#>  1 AB12345 AB1234… id-9   BRA-1     35 F     BLAC… BRA     BRA-1 C: C… ARM C
#>  2 AB12345 AB1234… id-9   BRA-1     35 F     BLAC… BRA     BRA-1 C: C… ARM C
#>  3 AB12345 AB1234… id-9   BRA-1     35 F     BLAC… BRA     BRA-1 C: C… ARM C
#>  4 AB12345 AB1234… id-9   BRA-1     35 F     BLAC… BRA     BRA-1 C: C… ARM C
#>  5 AB12345 AB1234… id-9   BRA-1     35 F     BLAC… BRA     BRA-1 C: C… ARM C
#>  6 AB12345 AB1234… id-9   BRA-1     35 F     BLAC… BRA     BRA-1 C: C… ARM C
#>  7 AB12345 AB1234… id-9   BRA-1     35 F     BLAC… BRA     BRA-1 C: C… ARM C
#>  8 AB12345 AB1234… id-9   BRA-1     35 F     BLAC… BRA     BRA-1 C: C… ARM C
#>  9 AB12345 AB1234… id-9   BRA-1     35 F     BLAC… BRA     BRA-1 C: C… ARM C
#> 10 AB12345 AB1234… id-9   BRA-1     35 F     BLAC… BRA     BRA-1 C: C… ARM C
#> # … with 320 more rows, and 48 more variables: ACTARM <fct>, ACTARMCD <fct>,
#> #   STRATA1 <fct>, STRATA2 <fct>, BMRKR1 <dbl>, BMRKR2 <fct>, ITTFL <fct>,
#> #   SAFFL <fct>, BMEASIFL <fct>, BEP01FL <fct>, RANDDT <date>, TRTSDTM <dttm>,
#> #   TRTEDTM <dttm>, EOSSTT <fct>, EOSDT <date>, EOSDY <int>, DCSREAS <fct>,
#> #   DTHDT <date>, LSTALVDT <date>, study_duration_secs <dbl>, ASEQ <int>,
#> #   LBSEQ <int>, LBTESTCD <fct>, LBTEST <fct>, LBCAT <fct>, LBSTRESC <chr>,
#> #   ASPID <int>, PARAM <fct>, PARAMCD <fct>, AVAL <dbl>, AVALU <fct>,
#> #   BASE2 <dbl>, BASE <dbl>, BASETYPE <fct>, ABLFL2 <fct>, ABLFL <fct>,
#> #   CHG2 <dbl>, PCHG2 <dbl>, CHG <dbl>, PCHG <dbl>, DTYPE <lgl>, ANRIND <fct>,
…
