…
# radeg produces expected values

    Code
      first_pt_rows
    Output
      # A tibble: 34 x 88
         STUDYID USUBJID    SUBJID SITEID   AGE AGEU  SEX   RACE  ETHNIC COUNTRY DTHFL
         <chr>   <chr>      <chr>  <chr>  <int> <fct> <fct> <fct> <fct>  <fct>   <fct>
       1 AB12345 AB12345-B~ id-9   BRA-1     35 YEARS F     BLAC~ UNKNO~ BRA     N    
       2 AB12345 AB12345-B~ id-9   BRA-1     35 YEARS F     BLAC~ UNKNO~ BRA     N    
       3 AB12345 AB12345-B~ id-9   BRA-1     35 YEARS F     BLAC~ UNKNO~ BRA     N    
       4 AB12345 AB12345-B~ id-9   BRA-1     35 YEARS F     BLAC~ UNKNO~ BRA     N    
       5 AB12345 AB12345-B~ id-9   BRA-1     35 YEARS F     BLAC~ UNKNO~ BRA     N    
       6 AB12345 AB12345-B~ id-9   BRA-1     35 YEARS F     BLAC~ UNKNO~ BRA     N    
       7 AB12345 AB12345-B~ id-9   BRA-1     35 YEARS F     BLAC~ UNKNO~ BRA     N    
       8 AB12345 AB12345-B~ id-9   BRA-1     35 YEARS F     BLAC~ UNKNO~ BRA     N    
       9 AB12345 AB12345-B~ id-9   BRA-1     35 YEARS F     BLAC~ UNKNO~ BRA     N    
      10 AB12345 AB12345-B~ id-9   BRA-1     35 YEARS F     BLAC~ UNKNO~ BRA     N    
      # ... with 24 more rows, and 77 more variables: INVID <chr>, INVNAM <chr>,
      #   ARM <fct>, ARMCD <fct>, ACTARM <fct>, ACTARMCD <fct>, TRT01P <fct>,
      #   TRT01A <fct>, TRT02P <fct>, TRT02A <fct>, REGION1 <fct>, STRATA1 <fct>,
      #   STRATA2 <fct>, BMRKR1 <dbl>, BMRKR2 <fct>, ITTFL <fct>, SAFFL <fct>,
      #   BMEASIFL <fct>, BEP01FL <fct>, AEWITHFL <fct>, RANDDT <date>,
      #   TRTSDTM <dttm>, TRTEDTM <dttm>, TRT01SDTM <dttm>, TRT01EDTM <dttm>,
      #   TRT02SDTM <dttm>, TRT02EDTM <dttm>, AP01SDTM <dttm>, AP01EDTM <dttm>, ...
…
# radhy produces expected values

    Code
      first_pt_rows
    Output
      # A tibble: 50 x 71
         STUDYID USUBJID    SUBJID SITEID   AGE AGEU  SEX   RACE  ETHNIC COUNTRY DTHFL
         <chr>   <chr>      <chr>  <chr>  <int> <fct> <fct> <fct> <fct>  <fct>   <fct>
       1 AB12345 AB12345-B~ id-9   BRA-1     35 YEARS F     BLAC~ UNKNO~ BRA     N    
       2 AB12345 AB12345-B~ id-9   BRA-1     35 YEARS F     BLAC~ UNKNO~ BRA     N    
       3 AB12345 AB12345-B~ id-9   BRA-1     35 YEARS F     BLAC~ UNKNO~ BRA     N    
       4 AB12345 AB12345-B~ id-9   BRA-1     35 YEARS F     BLAC~ UNKNO~ BRA     N    
       5 AB12345 AB12345-B~ id-9   BRA-1     35 YEARS F     BLAC~ UNKNO~ BRA     N    
       6 AB12345 AB12345-B~ id-9   BRA-1     35 YEARS F     BLAC~ UNKNO~ BRA     N    
       7 AB12345 AB12345-B~ id-9   BRA-1     35 YEARS F     BLAC~ UNKNO~ BRA     N    
       8 AB12345 AB12345-B~ id-9   BRA-1     35 YEARS F     BLAC~ UNKNO~ BRA     N    
       9 AB12345 AB12345-B~ id-9   BRA-1     35 YEARS F     BLAC~ UNKNO~ BRA     N    
      10 AB12345 AB12345-B~ id-9   BRA-1     35 YEARS F     BLAC~ UNKNO~ BRA     N    
      # ... with 40 more rows, and 60 more variables: INVID <chr>, INVNAM <chr>,
      #   ARM <fct>, ARMCD <fct>, ACTARM <fct>, ACTARMCD <fct>, TRT01P <fct>,
      #   TRT01A <fct>, TRT02P <fct>, TRT02A <fct>, REGION1 <fct>, STRATA1 <fct>,
      #   STRATA2 <fct>, BMRKR1 <dbl>, BMRKR2 <fct>, ITTFL <fct>, SAFFL <fct>,
      #   BMEASIFL <fct>, BEP01FL <fct>, AEWITHFL <fct>, RANDDT <date>,
      #   TRTSDTM <dttm>, TRTEDTM <dttm>, TRT01SDTM <dttm>, TRT01EDTM <dttm>,
      #   TRT02SDTM <dttm>, TRT02EDTM <dttm>, AP01SDTM <dttm>, AP01EDTM <dttm>, ...
…
# radlb produces expected values

    Code
      first_pt_rows
    Output
      # A tibble: 21 x 102
         STUDYID USUBJID    SUBJID SITEID   AGE AGEU  SEX   RACE  ETHNIC COUNTRY DTHFL
         <chr>   <chr>      <chr>  <chr>  <int> <fct> <fct> <fct> <fct>  <fct>   <fct>
       1 AB12345 AB12345-B~ id-9   BRA-1     35 YEARS F     BLAC~ UNKNO~ BRA     N    
       2 AB12345 AB12345-B~ id-9   BRA-1     35 YEARS F     BLAC~ UNKNO~ BRA     N    
       3 AB12345 AB12345-B~ id-9   BRA-1     35 YEARS F     BLAC~ UNKNO~ BRA     N    
       4 AB12345 AB12345-B~ id-9   BRA-1     35 YEARS F     BLAC~ UNKNO~ BRA     N    
       5 AB12345 AB12345-B~ id-9   BRA-1     35 YEARS F     BLAC~ UNKNO~ BRA     N    
       6 AB12345 AB12345-B~ id-9   BRA-1     35 YEARS F     BLAC~ UNKNO~ BRA     N    
       7 AB12345 AB12345-B~ id-9   BRA-1     35 YEARS F     BLAC~ UNKNO~ BRA     N    
       8 AB12345 AB12345-B~ id-9   BRA-1     35 YEARS F     BLAC~ UNKNO~ BRA     N    
       9 AB12345 AB12345-B~ id-9   BRA-1     35 YEARS F     BLAC~ UNKNO~ BRA     N    
      10 AB12345 AB12345-B~ id-9   BRA-1     35 YEARS F     BLAC~ UNKNO~ BRA     N    
      # ... with 11 more rows, and 91 more variables: INVID <chr>, INVNAM <chr>,
      #   ARM <fct>, ARMCD <fct>, ACTARM <fct>, ACTARMCD <fct>, TRT01P <fct>,
      #   TRT01A <fct>, TRT02P <fct>, TRT02A <fct>, REGION1 <fct>, STRATA1 <fct>,
      #   STRATA2 <fct>, BMRKR1 <dbl>, BMRKR2 <fct>, ITTFL <fct>, SAFFL <fct>,
      #   BMEASIFL <fct>, BEP01FL <fct>, AEWITHFL <fct>, RANDDT <date>,
      #   TRTSDTM <dttm>, TRTEDTM <dttm>, TRT01SDTM <dttm>, TRT01EDTM <dttm>,
      #   TRT02SDTM <dttm>, TRT02EDTM <dttm>, AP01SDTM <dttm>, AP01EDTM <dttm>, ...
…
# radpc produces expected values

    Code
      first_pt_rows
    Output
      # A tibble: 30 x 71
         STUDYID USUBJID    SUBJID SITEID   AGE AGEU  SEX   RACE  ETHNIC COUNTRY DTHFL
         <chr>   <chr>      <chr>  <chr>  <int> <fct> <fct> <fct> <fct>  <fct>   <fct>
       1 AB12345 AB12345-B~ id-9   BRA-1     35 YEARS F     BLAC~ UNKNO~ BRA     N    
       2 AB12345 AB12345-B~ id-9   BRA-1     35 YEARS F     BLAC~ UNKNO~ BRA     N    
       3 AB12345 AB12345-B~ id-9   BRA-1     35 YEARS F     BLAC~ UNKNO~ BRA     N    
       4 AB12345 AB12345-B~ id-9   BRA-1     35 YEARS F     BLAC~ UNKNO~ BRA     N    
       5 AB12345 AB12345-B~ id-9   BRA-1     35 YEARS F     BLAC~ UNKNO~ BRA     N    
       6 AB12345 AB12345-B~ id-9   BRA-1     35 YEARS F     BLAC~ UNKNO~ BRA     N    
       7 AB12345 AB12345-B~ id-9   BRA-1     35 YEARS F     BLAC~ UNKNO~ BRA     N    
       8 AB12345 AB12345-B~ id-9   BRA-1     35 YEARS F     BLAC~ UNKNO~ BRA     N    
       9 AB12345 AB12345-B~ id-9   BRA-1     35 YEARS F     BLAC~ UNKNO~ BRA     N    
      10 AB12345 AB12345-B~ id-9   BRA-1     35 YEARS F     BLAC~ UNKNO~ BRA     N    
      # ... with 20 more rows, and 60 more variables: INVID <chr>, INVNAM <chr>,
      #   ARM <fct>, ARMCD <fct>, ACTARM <fct>, ACTARMCD <fct>, TRT01P <fct>,
      #   TRT01A <fct>, TRT02P <fct>, TRT02A <fct>, REGION1 <fct>, STRATA1 <fct>,
      #   STRATA2 <fct>, BMRKR1 <dbl>, BMRKR2 <fct>, ITTFL <fct>, SAFFL <fct>,
      #   BMEASIFL <fct>, BEP01FL <fct>, AEWITHFL <fct>, RANDDT <date>,
      #   TRTSDTM <dttm>, TRTEDTM <dttm>, TRT01SDTM <dttm>, TRT01EDTM <dttm>,
      #   TRT02SDTM <dttm>, TRT02EDTM <dttm>, AP01SDTM <dttm>, AP01EDTM <dttm>, ...
…
# radab produces expected values

    Code
      first_pt_rows
    Output
      # A tibble: 220 x 22
         STUDYID USUBJID      ARM   ACTARM ISTPT  AVAL AVALC AVALU PARAM PARAMCD VISIT
         <chr>   <chr>        <fct> <fct>  <fct> <dbl> <chr> <fct> <fct> <fct>   <fct>
       1 AB12345 AB12345-JPN~ A: D~ A: Dr~ Pred~  1.04 POSI~ "tit~ Anti~ R18000~ Day 1
       2 AB12345 AB12345-JPN~ A: D~ A: Dr~ Pred~  1    POSI~ ""    ADA ~ RESULT1 Day 1
       3 AB12345 AB12345-JPN~ A: D~ A: Dr~ Pred~  1.04 POSI~ "tit~ Neut~ R18000~ Day 1
       4 AB12345 AB12345-JPN~ A: D~ A: Dr~ Pred~  1    POSI~ ""    NAB ~ RESULT2 Day 1
       5 AB12345 AB12345-JPN~ A: D~ A: Dr~ Pred~  1    POSI~ ""    ADA ~ ADASTA~ Day 1
       6 AB12345 AB12345-JPN~ A: D~ A: Dr~ Pred~  0    N     ""    Trea~ INDUCD1 Day 1
       7 AB12345 AB12345-JPN~ A: D~ A: Dr~ Pred~  0    N     ""    Trea~ ENHANC1 Day 1
       8 AB12345 AB12345-JPN~ A: D~ A: Dr~ Pred~  1    Y     ""    Trea~ TRUNAF~ Day 1
       9 AB12345 AB12345-JPN~ A: D~ A: Dr~ Pred~  1    Y     ""    Trea~ EMERNE~ Day 1
      10 AB12345 AB12345-JPN~ A: D~ A: Dr~ Pred~  0    N     ""    Trea~ EMERPO~ Day 1
      # ... with 210 more rows, and 11 more variables: VISITDY <int>, PARCAT1 <fct>,
      #   ADABLFL <fct>, ADAPBLFL <fct>, ABLFL <fct>, RELTMU <fct>, ATACHAR <fct>,
      #   NRELTM1 <dbl>, ARELTM1 <dbl>, NRELTM2 <dbl>, ARELTM2 <dbl>
…
# radqlqc produces expected values

    Code
      first_pt_rows
    Output
      # A tibble: 288 x 50
         STUDYID USUBJID   SUBJID SITEID   AGE AGEU  SEX   RACE  ETHNIC COUNTRY TRT01P
         <chr>   <chr>     <chr>  <chr>  <int> <fct> <fct> <fct> <fct>  <fct>   <fct> 
       1 AB12345 AB12345-~ id-9   BRA-1     35 YEARS F     BLAC~ UNKNO~ BRA     C: Co~
       2 AB12345 AB12345-~ id-9   BRA-1     35 YEARS F     BLAC~ UNKNO~ BRA     C: Co~
       3 AB12345 AB12345-~ id-9   BRA-1     35 YEARS F     BLAC~ UNKNO~ BRA     C: Co~
       4 AB12345 AB12345-~ id-9   BRA-1     35 YEARS F     BLAC~ UNKNO~ BRA     C: Co~
       5 AB12345 AB12345-~ id-9   BRA-1     35 YEARS F     BLAC~ UNKNO~ BRA     C: Co~
       6 AB12345 AB12345-~ id-9   BRA-1     35 YEARS F     BLAC~ UNKNO~ BRA     C: Co~
       7 AB12345 AB12345-~ id-9   BRA-1     35 YEARS F     BLAC~ UNKNO~ BRA     C: Co~
       8 AB12345 AB12345-~ id-9   BRA-1     35 YEARS F     BLAC~ UNKNO~ BRA     C: Co~
       9 AB12345 AB12345-~ id-9   BRA-1     35 YEARS F     BLAC~ UNKNO~ BRA     C: Co~
      10 AB12345 AB12345-~ id-9   BRA-1     35 YEARS F     BLAC~ UNKNO~ BRA     C: Co~
      # ... with 278 more rows, and 39 more variables: TRT01A <fct>, REGION1 <fct>,
      #   ITTFL <fct>, SAFFL <fct>, TRTSDTM <dttm>, TRTEDTM <dttm>, QSSEQ <int>,
      #   QSCAT <fct>, QSSCAT <fct>, QSDTC <dttm>, QSSTAT <fct>, QSSTRESC <fct>,
      #   QSSTRESU <fct>, QSORRES <fct>, QSORRESU <fct>, QSTEST <fct>,
      #   QSTESTCD <fct>, QSREASND <fct>, QSEVLINT <fct>, VISIT <fct>,
      #   VISITNUM <int>, ASEQ <int>, PARAM <fct>, PARAMCD <fct>, PARCAT1 <fct>,
      #   PARCAT1N <dbl>, PARCAT2 <fct>, AVAL <dbl>, AVALC <fct>, BASE <dbl>, ...
…
# radqs produces expected values

    Code
      first_pt_rows
    Output
      # A tibble: 35 x 73
         STUDYID USUBJID    SUBJID SITEID   AGE AGEU  SEX   RACE  ETHNIC COUNTRY DTHFL
         <chr>   <chr>      <chr>  <chr>  <int> <fct> <fct> <fct> <fct>  <fct>   <fct>
       1 AB12345 AB12345-B~ id-9   BRA-1     35 YEARS F     BLAC~ UNKNO~ BRA     N    
       2 AB12345 AB12345-B~ id-9   BRA-1     35 YEARS F     BLAC~ UNKNO~ BRA     N    
       3 AB12345 AB12345-B~ id-9   BRA-1     35 YEARS F     BLAC~ UNKNO~ BRA     N    
       4 AB12345 AB12345-B~ id-9   BRA-1     35 YEARS F     BLAC~ UNKNO~ BRA     N    
       5 AB12345 AB12345-B~ id-9   BRA-1     35 YEARS F     BLAC~ UNKNO~ BRA     N    
       6 AB12345 AB12345-B~ id-9   BRA-1     35 YEARS F     BLAC~ UNKNO~ BRA     N    
       7 AB12345 AB12345-B~ id-9   BRA-1     35 YEARS F     BLAC~ UNKNO~ BRA     N    
       8 AB12345 AB12345-B~ id-9   BRA-1     35 YEARS F     BLAC~ UNKNO~ BRA     N    
       9 AB12345 AB12345-B~ id-9   BRA-1     35 YEARS F     BLAC~ UNKNO~ BRA     N    
      10 AB12345 AB12345-B~ id-9   BRA-1     35 YEARS F     BLAC~ UNKNO~ BRA     N    
      # ... with 25 more rows, and 62 more variables: INVID <chr>, INVNAM <chr>,
      #   ARM <fct>, ARMCD <fct>, ACTARM <fct>, ACTARMCD <fct>, TRT01P <fct>,
      #   TRT01A <fct>, TRT02P <fct>, TRT02A <fct>, REGION1 <fct>, STRATA1 <fct>,
      #   STRATA2 <fct>, BMRKR1 <dbl>, BMRKR2 <fct>, ITTFL <fct>, SAFFL <fct>,
      #   BMEASIFL <fct>, BEP01FL <fct>, AEWITHFL <fct>, RANDDT <date>,
      #   TRTSDTM <dttm>, TRTEDTM <dttm>, TRT01SDTM <dttm>, TRT01EDTM <dttm>,
      #   TRT02SDTM <dttm>, TRT02EDTM <dttm>, AP01SDTM <dttm>, AP01EDTM <dttm>, ...
…
# radvs produces expected values

    Code
      first_pt_rows
    Output
      # A tibble: 42 x 87
         STUDYID USUBJID    SUBJID SITEID   AGE AGEU  SEX   RACE  ETHNIC COUNTRY DTHFL
         <chr>   <chr>      <chr>  <chr>  <int> <fct> <fct> <fct> <fct>  <fct>   <fct>
       1 AB12345 AB12345-B~ id-9   BRA-1     35 YEARS F     BLAC~ UNKNO~ BRA     N    
       2 AB12345 AB12345-B~ id-9   BRA-1     35 YEARS F     BLAC~ UNKNO~ BRA     N    
       3 AB12345 AB12345-B~ id-9   BRA-1     35 YEARS F     BLAC~ UNKNO~ BRA     N    
       4 AB12345 AB12345-B~ id-9   BRA-1     35 YEARS F     BLAC~ UNKNO~ BRA     N    
       5 AB12345 AB12345-B~ id-9   BRA-1     35 YEARS F     BLAC~ UNKNO~ BRA     N    
       6 AB12345 AB12345-B~ id-9   BRA-1     35 YEARS F     BLAC~ UNKNO~ BRA     N    
       7 AB12345 AB12345-B~ id-9   BRA-1     35 YEARS F     BLAC~ UNKNO~ BRA     N    
       8 AB12345 AB12345-B~ id-9   BRA-1     35 YEARS F     BLAC~ UNKNO~ BRA     N    
       9 AB12345 AB12345-B~ id-9   BRA-1     35 YEARS F     BLAC~ UNKNO~ BRA     N    
      10 AB12345 AB12345-B~ id-9   BRA-1     35 YEARS F     BLAC~ UNKNO~ BRA     N    
      # ... with 32 more rows, and 76 more variables: INVID <chr>, INVNAM <chr>,
      #   ARM <fct>, ARMCD <fct>, ACTARM <fct>, ACTARMCD <fct>, TRT01P <fct>,
      #   TRT01A <fct>, TRT02P <fct>, TRT02A <fct>, REGION1 <fct>, STRATA1 <fct>,
      #   STRATA2 <fct>, BMRKR1 <dbl>, BMRKR2 <fct>, ITTFL <fct>, SAFFL <fct>,
      #   BMEASIFL <fct>, BEP01FL <fct>, AEWITHFL <fct>, RANDDT <date>,
      #   TRTSDTM <dttm>, TRTEDTM <dttm>, TRT01SDTM <dttm>, TRT01EDTM <dttm>,
      #   TRT02SDTM <dttm>, TRT02EDTM <dttm>, AP01SDTM <dttm>, AP01EDTM <dttm>, ...
…
