Anti-Drug Antibody Analysis Dataset (ADAB) — radab • random.cdisc.data
…
    data.frame

    Details

    One record per study per subject per parameter per time point: "R1800000", "RESULT1", "R1800001", "RESULT2".

    Examples

adsl <- radsl(N = 10, seed = 1, study_duration = 2)
adpc <- radpc(adsl, seed = 2, duration = 9 * 7)

adab <- radab(adsl, adpc, seed = 2)
adab
#> # A tibble: 208 × 21
#>    STUDYID USUBJID      ARM   ACTARM ISTPT  AVAL AVALC AVALU PARAM PARAMCD VISIT
#>    <chr>   <chr>        <fct> <fct>  <fct> <dbl> <chr> <fct> <fct> <fct>   <fct>
#>  1 AB12345 AB12345-JPN… A: D… A: Dr… Pred…  1.04 POSI… titer Anti… R18000… Day 1
#>  2 AB12345 AB12345-USA… A: D… A: Dr… Pred…  1.32 POSI… titer Anti… R18000… Day 1
#>  3 AB12345 AB12345-BRA… A: D… A: Dr… Pred… NA    NEGA… titer Anti… R18000… Day 1
#>  4 AB12345 AB12345-CHN… A: D… A: Dr… Pred… NA    NEGA… titer Anti… R18000… Day 1
#>  5 AB12345 AB12345-CHN… C: C… C: Co… Pred…  1.03 POSI… titer Anti… R18000… Day 1
#>  6 AB12345 AB12345-CHN… A: D… A: Dr… Pred…  1.14 POSI… titer Anti… R18000… Day 1
#>  7 AB12345 AB12345-RUS… A: D… A: Dr… Pred…  1.40 POSI… titer Anti… R18000… Day 1
#>  8 AB12345 AB12345-BRA… C: C… C: Co… Pred… NA    NEGA… titer Anti… R18000… Day 1
#>  9 AB12345 AB12345-JPN… A: D… A: Dr… 24H    1.20 POSI… titer Anti… R18000… Day 2
#> 10 AB12345 AB12345-USA… A: D… A: Dr… 24H   NA    NEGA… titer Anti… R18000… Day 2
#> # ℹ 198 more rows
#> # ℹ 10 more variables: VISITDY <int>, PARCAT1 <fct>, ADABLPFL <fct>,
#> #   ADPBLPFL <fct>, ABLFL <fct>, RELTMU <fct>, NFRLT <dbl>, AFRLT <dbl>,
#> #   NRRLT <dbl>, ARRLT <dbl>
…
