ECG Analysis Dataset (ADEG) — radeg • random.cdisc.data
…
    One record per subject per parameter per analysis visit per analysis date.

Keys: STUDYID, USUBJID, PARAMCD, BASETYPE, AVISITN, ATPTN, DTYPE, ADTM, EGSEQ, ASPID

    Author

    tomlinsj, npaszty, Xuefeng Hou, dipietrc

    Examples

adsl <- radsl(N = 10, seed = 1, study_duration = 2)

adeg <- radeg(adsl, visit_format = "WEEK", n_assessments = 7L, seed = 2)
adeg
#> # A tibble: 420 × 88
#>    STUDYID USUBJID    SUBJID SITEID   AGE AGEU  SEX   RACE  ETHNIC COUNTRY DTHFL
#>    <chr>   <chr>      <chr>  <chr>  <int> <fct> <fct> <fct> <fct>  <fct>   <fct>
#>  1 AB12345 AB12345-B… id-9   BRA-1     35 YEARS F     BLAC… UNKNO… BRA     N    
#>  2 AB12345 AB12345-B… id-9   BRA-1     35 YEARS F     BLAC… UNKNO… BRA     N    
#>  3 AB12345 AB12345-B… id-9   BRA-1     35 YEARS F     BLAC… UNKNO… BRA     N    
#>  4 AB12345 AB12345-B… id-9   BRA-1     35 YEARS F     BLAC… UNKNO… BRA     N    
#>  5 AB12345 AB12345-B… id-9   BRA-1     35 YEARS F     BLAC… UNKNO… BRA     N    
#>  6 AB12345 AB12345-B… id-9   BRA-1     35 YEARS F     BLAC… UNKNO… BRA     N    
#>  7 AB12345 AB12345-B… id-9   BRA-1     35 YEARS F     BLAC… UNKNO… BRA     N    
#>  8 AB12345 AB12345-B… id-9   BRA-1     35 YEARS F     BLAC… UNKNO… BRA     N    
#>  9 AB12345 AB12345-B… id-9   BRA-1     35 YEARS F     BLAC… UNKNO… BRA     N    
#> 10 AB12345 AB12345-B… id-9   BRA-1     35 YEARS F     BLAC… UNKNO… BRA     N    
#> # ℹ 410 more rows
#> # ℹ 77 more variables: INVID <chr>, INVNAM <chr>, ARM <fct>, ARMCD <fct>,
#> #   ACTARM <fct>, ACTARMCD <fct>, TRT01P <fct>, TRT01A <fct>, TRT02P <fct>,
#> #   TRT02A <fct>, REGION1 <fct>, STRATA1 <fct>, STRATA2 <fct>, BMRKR1 <dbl>,
#> #   BMRKR2 <fct>, ITTFL <fct>, SAFFL <fct>, BMEASIFL <fct>, BEP01FL <fct>,
#> #   AEWITHFL <fct>, RANDDT <date>, TRTSDTM <dttm>, TRTEDTM <dttm>,
#> #   TRT01SDTM <dttm>, TRT01EDTM <dttm>, TRT02SDTM <dttm>, TRT02EDTM <dttm>, …

adeg <- radeg(adsl, visit_format = "CYCLE", n_assessments = 2L, seed = 2)
adeg
#> # A tibble: 500 × 88
#>    STUDYID USUBJID    SUBJID SITEID   AGE AGEU  SEX   RACE  ETHNIC COUNTRY DTHFL
#>    <chr>   <chr>      <chr>  <chr>  <int> <fct> <fct> <fct> <fct>  <fct>   <fct>
#>  1 AB12345 AB12345-B… id-9   BRA-1     35 YEARS F     BLAC… UNKNO… BRA     N    
#>  2 AB12345 AB12345-B… id-9   BRA-1     35 YEARS F     BLAC… UNKNO… BRA     N    
#>  3 AB12345 AB12345-B… id-9   BRA-1     35 YEARS F     BLAC… UNKNO… BRA     N    
#>  4 AB12345 AB12345-B… id-9   BRA-1     35 YEARS F     BLAC… UNKNO… BRA     N    
#>  5 AB12345 AB12345-B… id-9   BRA-1     35 YEARS F     BLAC… UNKNO… BRA     N    
#>  6 AB12345 AB12345-B… id-9   BRA-1     35 YEARS F     BLAC… UNKNO… BRA     N    
#>  7 AB12345 AB12345-B… id-9   BRA-1     35 YEARS F     BLAC… UNKNO… BRA     N    
#>  8 AB12345 AB12345-B… id-9   BRA-1     35 YEARS F     BLAC… UNKNO… BRA     N    
#>  9 AB12345 AB12345-B… id-9   BRA-1     35 YEARS F     BLAC… UNKNO… BRA     N    
#> 10 AB12345 AB12345-B… id-9   BRA-1     35 YEARS F     BLAC… UNKNO… BRA     N    
#> # ℹ 490 more rows
#> # ℹ 77 more variables: INVID <chr>, INVNAM <chr>, ARM <fct>, ARMCD <fct>,
#> #   ACTARM <fct>, ACTARMCD <fct>, TRT01P <fct>, TRT01A <fct>, TRT02P <fct>,
#> #   TRT02A <fct>, REGION1 <fct>, STRATA1 <fct>, STRATA2 <fct>, BMRKR1 <dbl>,
#> #   BMRKR2 <fct>, ITTFL <fct>, SAFFL <fct>, BMEASIFL <fct>, BEP01FL <fct>,
#> #   AEWITHFL <fct>, RANDDT <date>, TRTSDTM <dttm>, TRTEDTM <dttm>,
#> #   TRT01SDTM <dttm>, TRT01EDTM <dttm>, TRT02SDTM <dttm>, TRT02EDTM <dttm>, …
…
