Laboratory Data Analysis Dataset (ADLB) — radlb • random.cdisc.data
…
    One record per subject per parameter per analysis visit per analysis date.

Keys: STUDYID, USUBJID, PARAMCD, BASETYPE, AVISITN, ATPTN, DTYPE, ADTM, LBSEQ, ASPID.

    Author

    tomlinsj, npaszty, Xuefeng Hou

    Examples

library(random.cdisc.data)
ADSL <- radsl(N = 10, seed = 1, study_duration = 2)
radlb(ADSL, visit_format = "WEEK", n_assessments = 7L, seed = 2)
#> # A tibble: 270 × 87
#>    STUDYID USUBJID    SUBJID SITEID   AGE AGEU  SEX   RACE  ETHNIC COUNTRY DTHFL
#>    <chr>   <chr>      <chr>  <chr>  <int> <fct> <fct> <fct> <fct>  <fct>   <fct>
#>  1 AB12345 AB12345-B… id-9   BRA-1     35 YEARS F     BLAC… HISPA… BRA     N    
#>  2 AB12345 AB12345-B… id-9   BRA-1     35 YEARS F     BLAC… HISPA… BRA     N    
#>  3 AB12345 AB12345-B… id-9   BRA-1     35 YEARS F     BLAC… HISPA… BRA     N    
#>  4 AB12345 AB12345-B… id-9   BRA-1     35 YEARS F     BLAC… HISPA… BRA     N    
#>  5 AB12345 AB12345-B… id-9   BRA-1     35 YEARS F     BLAC… HISPA… BRA     N    
#>  6 AB12345 AB12345-B… id-9   BRA-1     35 YEARS F     BLAC… HISPA… BRA     N    
#>  7 AB12345 AB12345-B… id-9   BRA-1     35 YEARS F     BLAC… HISPA… BRA     N    
#>  8 AB12345 AB12345-B… id-9   BRA-1     35 YEARS F     BLAC… HISPA… BRA     N    
#>  9 AB12345 AB12345-B… id-9   BRA-1     35 YEARS F     BLAC… HISPA… BRA     N    
#> 10 AB12345 AB12345-B… id-9   BRA-1     35 YEARS F     BLAC… HISPA… BRA     N    
#> # … with 260 more rows, and 76 more variables: INVID <chr>, INVNAM <chr>,
#> #   ARM <fct>, ARMCD <fct>, ACTARM <fct>, ACTARMCD <fct>, TRT01P <fct>,
#> #   TRT01A <fct>, REGION1 <fct>, STRATA1 <fct>, STRATA2 <fct>, BMRKR1 <dbl>,
#> #   BMRKR2 <fct>, ITTFL <fct>, SAFFL <fct>, BMEASIFL <fct>, BEP01FL <fct>,
#> #   AEWITHFL <fct>, RANDDT <date>, TRTSDTM <dttm>, TRTEDTM <dttm>,
#> #   EOSSTT <fct>, EOTSTT <fct>, EOSDT <date>, EOSDY <int>, DCSREAS <fct>,
#> #   DTHDT <date>, DTHCAUS <fct>, DTHCAT <fct>, LDDTHELD <int>, …
radlb(ADSL, visit_format = "CYCLE", n_assessments = 2L, seed = 2)
#> # A tibble: 330 × 87
#>    STUDYID USUBJID    SUBJID SITEID   AGE AGEU  SEX   RACE  ETHNIC COUNTRY DTHFL
#>    <chr>   <chr>      <chr>  <chr>  <int> <fct> <fct> <fct> <fct>  <fct>   <fct>
#>  1 AB12345 AB12345-B… id-9   BRA-1     35 YEARS F     BLAC… HISPA… BRA     N    
#>  2 AB12345 AB12345-B… id-9   BRA-1     35 YEARS F     BLAC… HISPA… BRA     N    
#>  3 AB12345 AB12345-B… id-9   BRA-1     35 YEARS F     BLAC… HISPA… BRA     N    
#>  4 AB12345 AB12345-B… id-9   BRA-1     35 YEARS F     BLAC… HISPA… BRA     N    
#>  5 AB12345 AB12345-B… id-9   BRA-1     35 YEARS F     BLAC… HISPA… BRA     N    
#>  6 AB12345 AB12345-B… id-9   BRA-1     35 YEARS F     BLAC… HISPA… BRA     N    
#>  7 AB12345 AB12345-B… id-9   BRA-1     35 YEARS F     BLAC… HISPA… BRA     N    
#>  8 AB12345 AB12345-B… id-9   BRA-1     35 YEARS F     BLAC… HISPA… BRA     N    
#>  9 AB12345 AB12345-B… id-9   BRA-1     35 YEARS F     BLAC… HISPA… BRA     N    
#> 10 AB12345 AB12345-B… id-9   BRA-1     35 YEARS F     BLAC… HISPA… BRA     N    
#> # … with 320 more rows, and 76 more variables: INVID <chr>, INVNAM <chr>,
#> #   ARM <fct>, ARMCD <fct>, ACTARM <fct>, ACTARMCD <fct>, TRT01P <fct>,
#> #   TRT01A <fct>, REGION1 <fct>, STRATA1 <fct>, STRATA2 <fct>, BMRKR1 <dbl>,
#> #   BMRKR2 <fct>, ITTFL <fct>, SAFFL <fct>, BMEASIFL <fct>, BEP01FL <fct>,
#> #   AEWITHFL <fct>, RANDDT <date>, TRTSDTM <dttm>, TRTEDTM <dttm>,
#> #   EOSSTT <fct>, EOTSTT <fct>, EOSDT <date>, EOSDY <int>, DCSREAS <fct>,
#> #   DTHDT <date>, DTHCAUS <fct>, DTHCAT <fct>, LDDTHELD <int>, …
…
