Medical History Analysis Dataset (ADMH) — radmh • random.cdisc.data
…
data.frame

    Details

    One record per each record in the corresponding SDTM domain.

Keys: STUDYID USUBJID ASTDTM MHSEQ.

    Examples

library(random.cdisc.data)
ADSL <- radsl(N = 10, study_duration = 2, seed = 1)
radmh(ADSL, seed = 2)
#> # A tibble: 51 × 68
#>    STUDYID USUBJID    SUBJID SITEID   AGE AGEU  SEX   RACE  ETHNIC COUNTRY DTHFL
#>    <chr>   <chr>      <chr>  <chr>  <int> <fct> <fct> <fct> <fct>  <fct>   <fct>
#>  1 AB12345 AB12345-B… id-9   BRA-1     35 YEARS F     BLAC… UNKNO… BRA     N    
#>  2 AB12345 AB12345-B… id-9   BRA-1     35 YEARS F     BLAC… UNKNO… BRA     N    
#>  3 AB12345 AB12345-B… id-9   BRA-1     35 YEARS F     BLAC… UNKNO… BRA     N    
#>  4 AB12345 AB12345-B… id-9   BRA-1     35 YEARS F     BLAC… UNKNO… BRA     N    
#>  5 AB12345 AB12345-B… id-9   BRA-1     35 YEARS F     BLAC… UNKNO… BRA     N    
#>  6 AB12345 AB12345-B… id-8   BRA-9     31 YEARS F     ASIAN NOT H… BRA     Y    
#>  7 AB12345 AB12345-B… id-8   BRA-9     31 YEARS F     ASIAN NOT H… BRA     Y    
#>  8 AB12345 AB12345-B… id-8   BRA-9     31 YEARS F     ASIAN NOT H… BRA     Y    
#>  9 AB12345 AB12345-B… id-8   BRA-9     31 YEARS F     ASIAN NOT H… BRA     Y    
#> 10 AB12345 AB12345-B… id-8   BRA-9     31 YEARS F     ASIAN NOT H… BRA     Y    
#> # … with 41 more rows, and 57 more variables: INVID <chr>, INVNAM <chr>,
#> #   ARM <fct>, ARMCD <fct>, ACTARM <fct>, ACTARMCD <fct>, TRT01P <fct>,
#> #   TRT01A <fct>, TRT02P <fct>, TRT02A <fct>, REGION1 <fct>, STRATA1 <fct>,
#> #   STRATA2 <fct>, BMRKR1 <dbl>, BMRKR2 <fct>, ITTFL <fct>, SAFFL <fct>,
#> #   BMEASIFL <fct>, BEP01FL <fct>, AEWITHFL <fct>, RANDDT <date>,
#> #   TRTSDTM <dttm>, TRTEDTM <dttm>, TRT01SDTM <dttm>, TRT01EDTM <dttm>,
#> #   TRT02SDTM <dttm>, TRT02EDTM <dttm>, AP01SDTM <dttm>, AP01EDTM <dttm>, …
…
