Tumor Response Analysis Data Set (ADRS) — radrs • random.cdisc.data
…
    Details

    One record per subject per parameter per analysis visit per analysis date.
SDTM variables are populated on new records coming from other single records.
Otherwise, SDTM variables are left blank.

Keys: STUDYID USUBJID PARAMCD AVISITN ADT RSSEQ

    Examples

library(random.cdisc.data)
ADSL <- radsl(N = 10, seed = 1, study_duration = 2)
radrs(ADSL, seed = 2)
#> # A tibble: 80 × 66
#>    STUDYID USUBJID    SUBJID SITEID   AGE AGEU  SEX   RACE  ETHNIC COUNTRY DTHFL
#>    <chr>   <chr>      <chr>  <chr>  <int> <fct> <fct> <fct> <fct>  <fct>   <fct>
#>  1 AB12345 AB12345-B… id-9   BRA-1     35 YEARS F     BLAC… UNKNO… BRA     N    
#>  2 AB12345 AB12345-B… id-9   BRA-1     35 YEARS F     BLAC… UNKNO… BRA     N    
#>  3 AB12345 AB12345-B… id-9   BRA-1     35 YEARS F     BLAC… UNKNO… BRA     N    
#>  4 AB12345 AB12345-B… id-9   BRA-1     35 YEARS F     BLAC… UNKNO… BRA     N    
#>  5 AB12345 AB12345-B… id-9   BRA-1     35 YEARS F     BLAC… UNKNO… BRA     N    
#>  6 AB12345 AB12345-B… id-9   BRA-1     35 YEARS F     BLAC… UNKNO… BRA     N    
#>  7 AB12345 AB12345-B… id-9   BRA-1     35 YEARS F     BLAC… UNKNO… BRA     N    
#>  8 AB12345 AB12345-B… id-9   BRA-1     35 YEARS F     BLAC… UNKNO… BRA     N    
#>  9 AB12345 AB12345-B… id-8   BRA-9     31 YEARS F     ASIAN NOT H… BRA     Y    
#> 10 AB12345 AB12345-B… id-8   BRA-9     31 YEARS F     ASIAN NOT H… BRA     Y    
#> # … with 70 more rows, and 55 more variables: INVID <chr>, INVNAM <chr>,
#> #   ARM <fct>, ARMCD <fct>, ACTARM <fct>, ACTARMCD <fct>, TRT01P <fct>,
#> #   TRT01A <fct>, TRT02P <fct>, TRT02A <fct>, REGION1 <fct>, STRATA1 <fct>,
#> #   STRATA2 <fct>, BMRKR1 <dbl>, BMRKR2 <fct>, ITTFL <fct>, SAFFL <fct>,
#> #   BMEASIFL <fct>, BEP01FL <fct>, AEWITHFL <fct>, RANDDT <date>,
#> #   TRTSDTM <dttm>, TRTEDTM <dttm>, TRT01SDTM <dttm>, TRT01EDTM <dttm>,
#> #   TRT02SDTM <dttm>, TRT02EDTM <dttm>, AP01SDTM <dttm>, AP01EDTM <dttm>, …
…
