Medical History Analysis Dataset (ADMH) — radmh • random.cdisc.data
…
    data.frame

    Details

    One record per each record in the corresponding SDTM domain.

Keys: STUDYID USUBJID ASTDTM MHSEQ.

    Examples

library(random.cdisc.data)
ADSL <- radsl(N = 10, study_duration = 2, seed = 1)
radmh(ADSL, seed = 2)

#> # A tibble: 51 × 49
#>    STUDYID USUBJID  SUBJID SITEID   AGE SEX   RACE    COUNTRY DTHFL INVID INVNAM
#>    <chr>   <chr>    <chr>  <chr>  <int> <fct> <fct>   <fct>   <fct> <chr> <chr> 
#>  1 AB12345 AB12345… id-9   BRA-1     35 F     BLACK … BRA     N     INV … Dr. B…
#>  2 AB12345 AB12345… id-9   BRA-1     35 F     BLACK … BRA     N     INV … Dr. B…
#>  3 AB12345 AB12345… id-9   BRA-1     35 F     BLACK … BRA     N     INV … Dr. B…
#>  4 AB12345 AB12345… id-9   BRA-1     35 F     BLACK … BRA     N     INV … Dr. B…
#>  5 AB12345 AB12345… id-9   BRA-1     35 F     BLACK … BRA     N     INV … Dr. B…
#>  6 AB12345 AB12345… id-8   BRA-9     31 F     ASIAN   BRA     N     INV … Dr. B…
#>  7 AB12345 AB12345… id-8   BRA-9     31 F     ASIAN   BRA     N     INV … Dr. B…
#>  8 AB12345 AB12345… id-8   BRA-9     31 F     ASIAN   BRA     N     INV … Dr. B…
#>  9 AB12345 AB12345… id-8   BRA-9     31 F     ASIAN   BRA     N     INV … Dr. B…
#> 10 AB12345 AB12345… id-8   BRA-9     31 F     ASIAN   BRA     N     INV … Dr. B…
#> # … with 41 more rows, and 38 more variables: ARM <fct>, ARMCD <fct>,
#> #   ACTARM <fct>, ACTARMCD <fct>, REGION1 <fct>, STRATA1 <fct>, STRATA2 <fct>,
#> #   BMRKR1 <dbl>, BMRKR2 <fct>, ITTFL <fct>, SAFFL <fct>, BMEASIFL <fct>,
#> #   BEP01FL <fct>, RANDDT <date>, TRTSDTM <dttm>, TRTEDTM <dttm>, EOSSTT <fct>,
#> #   EOTSTT <fct>, EOSDT <date>, EOSDY <int>, DCSREAS <fct>, DTHDT <date>,
#> #   DTHCAUS <fct>, DTHCAT <fct>, LDDTHELD <int>, LDDTHGR1 <fct>,
#> #   LSTALVDT <date>, study_duration_secs <dbl>, ASEQ <int>, MHSEQ <int>, …
…
